<?xml version="1.0" encoding="UTF-8" standalone="no"?>
<!-- Created with Inkscape (http://www.inkscape.org/) -->

<svg
   width="54mm"
   height="74mm"
   viewBox="0 0 53.999995 73.999993"
   version="1.1"
   id="svg5"
   xml:space="preserve"
   inkscape:version="1.3.2 (091e20ef0f, 2023-11-25)"
   sodipodi:docname="effekt_wasser_hinten008.svg"
   inkscape:export-filename="effekt_wasser_hinten008.jpg"
   inkscape:export-xdpi="300"
   inkscape:export-ydpi="300"
   xmlns:inkscape="http://www.inkscape.org/namespaces/inkscape"
   xmlns:sodipodi="http://sodipodi.sourceforge.net/DTD/sodipodi-0.dtd"
   xmlns:xlink="http://www.w3.org/1999/xlink"
   xmlns="http://www.w3.org/2000/svg"
   xmlns:svg="http://www.w3.org/2000/svg"><sodipodi:namedview
     id="namedview7"
     pagecolor="#ffffff"
     bordercolor="#666666"
     borderopacity="1.0"
     inkscape:showpageshadow="false"
     inkscape:pageopacity="0.0"
     inkscape:pagecheckerboard="false"
     inkscape:deskcolor="#d1d1d1"
     inkscape:document-units="mm"
     showgrid="false"
     inkscape:zoom="1.6987585"
     inkscape:cx="9.4186431"
     inkscape:cy="164.23759"
     inkscape:window-width="1908"
     inkscape:window-height="1116"
     inkscape:window-x="26"
     inkscape:window-y="23"
     inkscape:window-maximized="0"
     inkscape:current-layer="layer4"
     showguides="true"><sodipodi:guide
       position="23.897744,71.870479"
       orientation="0,1"
       id="guide375"
       inkscape:locked="false"
       inkscape:label="oben"
       inkscape:color="rgb(154,153,150)" /><sodipodi:guide
       position="2.0659097,221.87067"
       orientation="-1,0"
       id="guide377"
       inkscape:locked="false"
       inkscape:label="links"
       inkscape:color="rgb(154,153,150)" /><sodipodi:guide
       position="51.899979,63.202701"
       orientation="-1,0"
       id="guide379"
       inkscape:locked="false"
       inkscape:label="rechts"
       inkscape:color="rgb(154,153,150)" /><sodipodi:guide
       position="6.1557015,2.106651"
       orientation="0,1"
       id="guide381"
       inkscape:locked="false"
       inkscape:label="unten"
       inkscape:color="rgb(154,153,150)" /><sodipodi:guide
       position="19.028738,66.835355"
       orientation="0,1"
       id="guide383"
       inkscape:locked="false"
       inkscape:label="oben"
       inkscape:color="rgb(224,27,36)" /><sodipodi:guide
       position="27.994756,7.1931845"
       orientation="0,1"
       id="guide385"
       inkscape:locked="false"
       inkscape:label="unten"
       inkscape:color="rgb(224,27,36)" /><sodipodi:guide
       position="46.810778,61.724414"
       orientation="-1,0"
       id="guide387"
       inkscape:locked="false"
       inkscape:label="rechts"
       inkscape:color="rgb(224,27,36)" /><sodipodi:guide
       position="7.1563793,159.07515"
       orientation="-1,0"
       id="guide389"
       inkscape:locked="false"
       inkscape:label="links"
       inkscape:color="rgb(224,27,36)" /><sodipodi:guide
       position="27.072826,43.636959"
       orientation="-1,0"
       id="guide2340"
       inkscape:locked="false"
       inkscape:label="mitte"
       inkscape:color="rgb(97,53,131)" /><inkscape:grid
       type="xygrid"
       id="grid3717"
       originx="0"
       originy="0"
       spacingy="1"
       spacingx="1"
       units="mm"
       visible="false" /><sodipodi:guide
       position="26.999998,37.012538"
       orientation="0,1"
       id="guide1"
       inkscape:locked="false"
       inkscape:label="mitteh"
       inkscape:color="rgb(97,53,131)" /></sodipodi:namedview><defs
     id="defs2"><clipPath
       clipPathUnits="userSpaceOnUse"
       id="clipPath21164-9"><rect
         style="fill:none;fill-opacity:1;stroke:#000100;stroke-width:1.88976;stroke-linecap:round;stroke-linejoin:round;stroke-opacity:1;paint-order:markers fill stroke;stop-color:#000000"
         id="rect21166-4"
         width="529.77966"
         height="763.78815"
         x="267.72034"
         y="-120.90678" /></clipPath><clipPath
       clipPathUnits="userSpaceOnUse"
       id="clipPath3389-6"><path
         d="M 288,48 C 288,21.5 309.5,0 336,0 h 96 c 26.5,0 48,21.5 48,48 v 144 h 40 v -72 c 0,-13.3 10.7,-24 24,-24 13.3,0 24,10.7 24,24 v 72 h 24 c 26.5,0 48,21.5 48,48 v 224 c 0,26.5 -21.5,48 -48,48 H 432 336 c -26.5,0 -48,-21.5 -48,-48 z m 64,32 v 32 c 0,8.8 7.2,16 16,16 h 32 c 8.8,0 16,-7.2 16,-16 V 80 c 0,-8.8 -7.2,-16 -16,-16 h -32 c -8.8,0 -16,7.2 -16,16 z m 16,80 c -8.8,0 -16,7.2 -16,16 v 32 c 0,8.8 7.2,16 16,16 h 32 c 8.8,0 16,-7.2 16,-16 v -32 c 0,-8.8 -7.2,-16 -16,-16 z m -16,112 v 32 c 0,8.8 7.2,16 16,16 h 32 c 8.8,0 16,-7.2 16,-16 v -32 c 0,-8.8 -7.2,-16 -16,-16 h -32 c -8.8,0 -16,7.2 -16,16 z m 176,-16 c -8.8,0 -16,7.2 -16,16 v 32 c 0,8.8 7.2,16 16,16 h 32 c 8.8,0 16,-7.2 16,-16 v -32 c 0,-8.8 -7.2,-16 -16,-16 z m -16,112 v 32 c 0,8.8 7.2,16 16,16 h 32 c 8.8,0 16,-7.2 16,-16 v -32 c 0,-8.8 -7.2,-16 -16,-16 h -32 c -8.8,0 -16,7.2 -16,16 z M 224,160 c 0,6 -1,11 -2,16 20,14 34,38 34,64 0,45 -36,80 -80,80 h -16 v 160 c 0,18 -15,32 -32,32 -18,0 -32,-14 -32,-32 V 320 H 80 C 35,320 0,285 0,240 c 0,-26 13,-50 33,-64 -1,-5 -1,-10 -1,-16 0,-53 42,-96 96,-96 53,0 96,43 96,96 z"
         id="path3391-2"
         style="display:inline;fill:#808080;fill-opacity:1;stroke:#ffffff;stroke-width:31.8243;stroke-dasharray:none;stroke-opacity:1;paint-order:markers stroke fill"
         clip-path="url(#clipPath21164-8-0-5-3)"
         transform="matrix(0.00942445,0,0,0.00942445,116.78199,30.067811)"
         inkscape:label="haus" /></clipPath><clipPath
       clipPathUnits="userSpaceOnUse"
       id="clipPath21164-9-0"><rect
         style="fill:none;fill-opacity:1;stroke:#000100;stroke-width:1.88976;stroke-linecap:round;stroke-linejoin:round;stroke-opacity:1;paint-order:markers fill stroke;stop-color:#000000"
         id="rect21166-4-4"
         width="529.77966"
         height="763.78815"
         x="267.72034"
         y="-120.90678" /></clipPath><clipPath
       clipPathUnits="userSpaceOnUse"
       id="clipPath21164-9-7"><rect
         style="fill:none;fill-opacity:1;stroke:#000100;stroke-width:1.88976;stroke-linecap:round;stroke-linejoin:round;stroke-opacity:1;paint-order:markers fill stroke;stop-color:#000000"
         id="rect21166-4-2"
         width="529.77966"
         height="763.78815"
         x="267.72034"
         y="-120.90678" /></clipPath><clipPath
       clipPathUnits="userSpaceOnUse"
       id="clipPath21164-9-0-5"><rect
         style="fill:none;fill-opacity:1;stroke:#000100;stroke-width:1.88976;stroke-linecap:round;stroke-linejoin:round;stroke-opacity:1;paint-order:markers fill stroke;stop-color:#000000"
         id="rect21166-4-4-9"
         width="529.77966"
         height="763.78815"
         x="267.72034"
         y="-120.90678" /></clipPath><clipPath
       clipPathUnits="userSpaceOnUse"
       id="clipPath21164-9-7-0"><rect
         style="fill:none;fill-opacity:1;stroke:#000100;stroke-width:1.88976;stroke-linecap:round;stroke-linejoin:round;stroke-opacity:1;paint-order:markers fill stroke;stop-color:#000000"
         id="rect21166-4-2-9"
         width="529.77966"
         height="763.78815"
         x="267.72034"
         y="-120.90678" /></clipPath><clipPath
       clipPathUnits="userSpaceOnUse"
       id="clipPath21164-9-0-7"><rect
         style="fill:none;fill-opacity:1;stroke:#000100;stroke-width:1.88976;stroke-linecap:round;stroke-linejoin:round;stroke-opacity:1;paint-order:markers fill stroke;stop-color:#000000"
         id="rect21166-4-4-8"
         width="529.77966"
         height="763.78815"
         x="267.72034"
         y="-120.90678" /></clipPath><clipPath
       clipPathUnits="userSpaceOnUse"
       id="clipPath21164-9-0-7-6"><rect
         style="fill:none;fill-opacity:1;stroke:#000100;stroke-width:1.88976;stroke-linecap:round;stroke-linejoin:round;stroke-opacity:1;paint-order:markers fill stroke;stop-color:#000000"
         id="rect21166-4-4-8-8"
         width="529.77966"
         height="763.78815"
         x="267.72034"
         y="-120.90678" /></clipPath><clipPath
       clipPathUnits="userSpaceOnUse"
       id="clipPath21164-9-0-7-6-5"><rect
         style="fill:none;fill-opacity:1;stroke:#000100;stroke-width:1.88976;stroke-linecap:round;stroke-linejoin:round;stroke-opacity:1;paint-order:markers fill stroke;stop-color:#000000"
         id="rect21166-4-4-8-8-9"
         width="529.77966"
         height="763.78815"
         x="267.72034"
         y="-120.90678" /></clipPath><clipPath
       clipPathUnits="userSpaceOnUse"
       id="clipPath21164-9-0-7-6-5-5"><rect
         style="fill:none;fill-opacity:1;stroke:#000100;stroke-width:1.88976;stroke-linecap:round;stroke-linejoin:round;stroke-opacity:1;paint-order:markers fill stroke;stop-color:#000000"
         id="rect21166-4-4-8-8-9-6"
         width="529.77966"
         height="763.78815"
         x="267.72034"
         y="-120.90678" /></clipPath><radialGradient
       inkscape:collect="always"
       xlink:href="#linearGradient41484"
       id="radialGradient37985-7-4-9"
       cx="1922.595"
       cy="177.79465"
       fx="1922.595"
       fy="177.79465"
       r="62.24295"
       gradientTransform="matrix(0,-0.73683145,0.55010721,0,-70.692021,1453.6222)"
       gradientUnits="userSpaceOnUse" /><linearGradient
       inkscape:collect="always"
       id="linearGradient41484"><stop
         style="stop-color:#d3e5f8;stop-opacity:1;"
         offset="0"
         id="stop41480" /><stop
         style="stop-color:#d3e5f8;stop-opacity:1;"
         offset="1"
         id="stop41482" /></linearGradient></defs><g
     inkscape:groupmode="layer"
     id="layer2"
     inkscape:label="spielkarten_hintergrund"
     style="display:none"><rect
       style="fill:#d6eecc;fill-opacity:1;stroke:none;stroke-width:0;stroke-linecap:round;stroke-linejoin:round;stroke-dasharray:none;stroke-opacity:1;paint-order:markers fill stroke;stop-color:#000000"
       id="rect38138"
       width="62.999992"
       height="96"
       x="0"
       y="0"
       rx="6.1035156e-05"
       sodipodi:insensitive="true"
       ry="6.1035156e-05" /><path
       id="rect8855-4-3-2"
       style="display:inline;mix-blend-mode:normal;fill:#d8e4d3;fill-opacity:1;stroke:#ffffff;stroke-width:3;stroke-linecap:round;stroke-linejoin:round;stroke-dasharray:none;stroke-opacity:0.75;paint-order:markers fill stroke;stop-color:#000000"
       d="m -3.8185564,30.748386 c 0,0 5.960223,-1.121479 35.7613904,-1.121479 29.801216,0 35.76145,1.121479 35.76145,1.121479 4.95295,0 8.940342,3.751347 8.940342,8.411098 0,0 1.192051,5.607398 1.192051,33.64439 0,28.036976 -1.192051,33.644406 -1.192051,33.644406 0,4.65975 -3.987395,8.41111 -8.940345,8.41111 0,0 -5.960231,1.12147 -35.76145,1.12147 -29.8011644,0 -35.7613874,-1.12147 -35.7613874,-1.12147 -4.9529501,0 -8.9403416,-3.75136 -8.9403416,-8.41111 0,0 -1.192046,-5.60743 -1.192046,-33.644406 0,-28.036992 1.192046,-33.64439 1.192046,-33.64439 0,-4.659751 3.9873915,-8.411098 8.9403416,-8.411098 z"
       sodipodi:nodetypes="szsszsszsszss"
       inkscape:label="hintergrund"
       sodipodi:insensitive="true" /></g><g
     inkscape:groupmode="layer"
     id="layer4"
     inkscape:label="inhalt"><image
       width="343.0105"
       height="257.25784"
       preserveAspectRatio="none"
       xlink:href="background%203%20_projektkarten.png"
       id="image1"
       x="-95.732498"
       y="-61.306286"
       style="display:none;stroke-width:3.32738"
       inkscape:label="hintergrund" /><text
       xml:space="preserve"
       style="font-style:normal;font-variant:normal;font-weight:normal;font-stretch:normal;font-size:5.64445px;line-height:1.25;font-family:Gidole;-inkscape-font-specification:'Gidole, Normal';font-variant-ligatures:normal;font-variant-caps:normal;font-variant-numeric:normal;font-variant-east-asian:normal;text-align:center;letter-spacing:0px;word-spacing:0px;text-anchor:middle;fill:#ff827b;fill-opacity:1;stroke:#ff827b;stroke-width:0.5;stroke-linecap:round;stroke-linejoin:round;stroke-dasharray:none;stroke-opacity:1;paint-order:markers stroke fill"
       x="-18.442181"
       y="38.232918"
       id="text23549-8-0-5-8-4-6-8-2"
       inkscape:label="minus"><tspan
         sodipodi:role="line"
         id="tspan43322-7-6-9-8-3-3-8-9"
         x="-18.442181"
         y="38.232918">-</tspan></text><g
       id="g36389-1"
       transform="translate(14.694413,15.963462)"><path
         id="rect8855-4-3-2-9-3-3-6-2"
         style="mix-blend-mode:normal;fill:#ff827b;fill-opacity:1;stroke:none;stroke-width:0.548665;stroke-linecap:round;stroke-linejoin:round;stroke-dasharray:none;stroke-opacity:0.75;paint-order:markers fill stroke;stop-color:#000000"
         d="m -43.546626,18.432371 h 3.439583 3.704167 c 0.79375,0 1.322916,0.529167 1.322916,1.322917 v 1.058333 1.058334 c 0,0.79375 -0.529229,1.330192 -1.322916,1.322916 l -3.704167,-0.03396 -3.439583,0.03396 c -0.793673,0.0078 -1.310287,-0.529166 -1.310287,-1.322916 v -1.058334 -1.058333 c 0,-0.79375 0.516537,-1.322917 1.310287,-1.322917 z"
         sodipodi:nodetypes="szsszsszsszss" /><text
         xml:space="preserve"
         style="font-style:normal;font-variant:normal;font-weight:normal;font-stretch:normal;font-size:2.65456px;line-height:1.25;font-family:Gidole;-inkscape-font-specification:'Gidole, Normal';font-variant-ligatures:normal;font-variant-caps:normal;font-variant-numeric:normal;font-variant-east-asian:normal;text-align:start;letter-spacing:0px;word-spacing:0px;text-anchor:start;display:inline;mix-blend-mode:normal;fill:#ffffff;fill-opacity:1;fill-rule:nonzero;stroke:#ffffff;stroke-width:0.18772;stroke-linecap:round;stroke-linejoin:round;stroke-dasharray:none;stroke-opacity:1;paint-order:markers stroke fill"
         x="-37.641762"
         y="22.758289"
         id="text23549-8-3-4-0-6-3-1-7-9-6-48-4-7"
         transform="matrix(1.0498019,0.00143214,-0.17055484,0.95232799,0,0)"
         inkscape:transform-center-x="-0.2502116"
         inkscape:transform-center-y="-0.31334921"
         inkscape:label="ereignis"><tspan
           sodipodi:role="line"
           id="tspan23547-9-1-5-6-9-6-07-0-3-7-1-3-0"
           style="font-style:normal;font-variant:normal;font-weight:normal;font-stretch:normal;font-size:2.65456px;font-family:Gidole;-inkscape-font-specification:'Gidole, Normal';font-variant-ligatures:normal;font-variant-caps:normal;font-variant-numeric:normal;font-variant-east-asian:normal;text-align:start;text-anchor:start;fill:#ffffff;fill-opacity:1;fill-rule:nonzero;stroke:#ffffff;stroke-width:0.18772;stroke-linecap:round;stroke-linejoin:round;stroke-dasharray:none;stroke-opacity:1;paint-order:markers stroke fill"
           x="-37.641762"
           y="22.758289">Effekt</tspan></text></g><text
       xml:space="preserve"
       style="font-style:normal;font-variant:normal;font-weight:normal;font-stretch:normal;font-size:5.64445px;line-height:1.25;font-family:Gidole;-inkscape-font-specification:'Gidole, Normal';font-variant-ligatures:normal;font-variant-caps:normal;font-variant-numeric:normal;font-variant-east-asian:normal;text-align:center;letter-spacing:0px;word-spacing:0px;text-anchor:middle;fill:#79ff9f;fill-opacity:1;stroke:#79ff9f;stroke-width:0.5;stroke-linecap:round;stroke-linejoin:round;stroke-dasharray:none;stroke-opacity:1;paint-order:markers stroke fill"
       x="-40.486954"
       y="38.472553"
       id="text23549-8-0-5-8-8-1-8-2"
       inkscape:label="plus"><tspan
         sodipodi:role="line"
         id="tspan43322-7-6-9-8-6-7-5-6"
         x="-40.486954"
         y="38.472553">+</tspan></text><g
       id="g36379-1"
       transform="translate(18.080332,21.838694)"><path
         id="rect8855-4-3-2-9-3-3-7-5-8"
         style="mix-blend-mode:normal;fill:#79ff9f;fill-opacity:1;stroke:none;stroke-width:0.548665;stroke-linecap:round;stroke-linejoin:round;stroke-dasharray:none;stroke-opacity:0.75;paint-order:markers fill stroke;stop-color:#000000"
         d="m -69.035715,12.767474 h 3.439583 3.704167 c 0.79375,0 1.322916,0.529167 1.322916,1.322917 v 1.058333 1.058334 c 0,0.79375 -0.529229,1.330192 -1.322916,1.322916 l -3.704167,-0.03396 -3.439583,0.03396 c -0.793673,0.0078 -1.310287,-0.529166 -1.310287,-1.322916 v -1.058334 -1.058333 c 0,-0.79375 0.516537,-1.322917 1.310287,-1.322917 z"
         sodipodi:nodetypes="szsszsszsszss" /><text
         xml:space="preserve"
         style="font-style:normal;font-variant:normal;font-weight:normal;font-stretch:normal;font-size:2.65456px;line-height:1.25;font-family:Gidole;-inkscape-font-specification:'Gidole, Normal';font-variant-ligatures:normal;font-variant-caps:normal;font-variant-numeric:normal;font-variant-east-asian:normal;text-align:start;letter-spacing:0px;word-spacing:0px;text-anchor:start;display:inline;mix-blend-mode:normal;fill:#ffffff;fill-opacity:1;fill-rule:nonzero;stroke:#ffffff;stroke-width:0.18772;stroke-linecap:round;stroke-linejoin:round;stroke-dasharray:none;stroke-opacity:1;paint-order:markers stroke fill"
         x="-62.881912"
         y="16.847771"
         id="text23549-8-3-4-0-6-3-1-7-9-6-48-5-9-7"
         transform="matrix(1.0498019,0.00143214,-0.17055484,0.95232799,0,0)"
         inkscape:transform-center-x="-0.2502116"
         inkscape:transform-center-y="-0.31334921"
         inkscape:label="ereignis"><tspan
           sodipodi:role="line"
           id="tspan23547-9-1-5-6-9-6-07-0-3-7-1-9-7-92"
           style="font-style:normal;font-variant:normal;font-weight:normal;font-stretch:normal;font-size:2.65456px;font-family:Gidole;-inkscape-font-specification:'Gidole, Normal';font-variant-ligatures:normal;font-variant-caps:normal;font-variant-numeric:normal;font-variant-east-asian:normal;text-align:start;text-anchor:start;fill:#000000;fill-opacity:1;fill-rule:nonzero;stroke:#000000;stroke-width:0.18772;stroke-linecap:round;stroke-linejoin:round;stroke-dasharray:none;stroke-opacity:1;paint-order:markers stroke fill"
           x="-62.881912"
           y="16.847771">Effekt</tspan></text></g><path
       id="rect8855-4-3-2-9-3-3-6-5-4-6"
       style="mix-blend-mode:normal;fill:url(#radialGradient37985-7-4-9);fill-opacity:1;stroke:none;stroke-width:4.01453;stroke-linecap:round;stroke-linejoin:round;stroke-dasharray:none;stroke-opacity:0.75;paint-order:markers fill stroke;stop-color:#000000"
       d="m -6.2368538,72.730971 c 0,0 -0.8893624,-5.956491 -0.8893624,-35.736751 0,-29.7809469 0.8893624,-35.7370552 0.8893624,-35.7370552 0,-4.9499053 2.974896,-8.9341716 6.67019124,-8.9341716 0,0 4.44679896,-1.1916743 26.68075956,-1.1916743 22.233925,0 26.68071,1.1916743 26.68071,1.1916743 3.695333,0 6.670233,3.9842663 6.670233,8.9341716 0,0 0.889331,5.9561083 0.889331,35.7370552 0,29.78026 -0.889331,35.736751 -0.889331,35.736751 0,4.949525 -2.9749,8.934095 -6.670233,8.934095 0,0 -4.446785,1.191452 -26.68071,1.191452 -22.2339606,0 -26.68075956,-1.191452 -26.68075956,-1.191452 -3.69529524,0 -6.67019124,-3.98457 -6.67019124,-8.934095 z"
       sodipodi:nodetypes="szsszsszsszss" /><text
       xml:space="preserve"
       style="font-style:normal;font-variant:normal;font-weight:normal;font-stretch:normal;font-size:4.92842px;line-height:1.25;font-family:Gidole;-inkscape-font-specification:'Gidole, Normal';font-variant-ligatures:normal;font-variant-caps:normal;font-variant-numeric:normal;font-variant-east-asian:normal;text-align:center;letter-spacing:0px;word-spacing:0px;text-anchor:middle;display:inline;mix-blend-mode:color-burn;fill:#333333;fill-opacity:1;fill-rule:nonzero;stroke:#333333;stroke-width:0.349258;stroke-linecap:round;stroke-linejoin:round;stroke-dasharray:none;stroke-opacity:1;paint-order:markers stroke fill"
       x="-32.917656"
       y="13.653141"
       id="text23549-8-3-4-0-6-3-1-7-9-6-92-6-9"
       transform="matrix(0.00143214,-1.0497521,0.95232806,0.20362934,0,0)"
       inkscape:transform-center-x="0.58299751"
       inkscape:transform-center-y="-0.49037984"><tspan
         sodipodi:role="line"
         id="tspan23547-9-1-5-6-9-6-07-0-3-7-6-4-5"
         style="font-style:normal;font-variant:normal;font-weight:normal;font-stretch:normal;font-size:4.92842px;font-family:Gidole;-inkscape-font-specification:'Gidole, Normal';font-variant-ligatures:normal;font-variant-caps:normal;font-variant-numeric:normal;font-variant-east-asian:normal;fill:#333333;fill-opacity:1;fill-rule:nonzero;stroke:#333333;stroke-width:0.349258;stroke-linecap:round;stroke-linejoin:round;stroke-dasharray:none;stroke-opacity:1;paint-order:markers stroke fill"
         x="-32.917656"
         y="13.653141">Effekt</tspan></text><path
       style="opacity:0.5;mix-blend-mode:luminosity;fill:none;fill-opacity:1;stroke:#154c89;stroke-width:2.66566;stroke-dasharray:none;stroke-opacity:1"
       d="m 34.220755,37.439436 c -0.03795,0.424235 -0.263568,1.188268 -0.396502,1.343307 -0.0137,0.01578 -0.01597,0.0427 -0.0055,0.05967 0.01075,0.01697 0.0098,0.0229 -0.0019,0.01314 -0.01187,-0.0098 -0.04279,0.02253 -0.06888,0.07162 -0.05255,0.09923 -0.0686,0.123956 -0.210762,0.323287 -0.0541,0.076 -0.09853,0.143087 -0.09853,0.149099 0,0.01159 -0.0036,0.01597 -0.206208,0.241188 -0.07226,0.08038 -0.122864,0.153834 -0.112525,0.163313 0.0104,0.0095 0.0064,0.01368 -0.01,0.0092 -0.01568,-0.0046 -0.129376,0.07809 -0.25239,0.183238 -0.123034,0.105162 -0.254116,0.21068 -0.291303,0.2345 -0.03722,0.0239 -0.05957,0.05501 -0.04999,0.06943 0.0105,0.01551 0.0064,0.01934 -0.01251,0.0091 -0.01651,-0.0094 -0.03021,-0.0064 -0.03021,0.0082 0,0.01396 -0.0096,0.02263 -0.02125,0.01934 -0.01168,-0.0036 -0.08503,0.03084 -0.163005,0.07572 -0.124832,0.0718 -0.20265,0.112689 -0.403533,0.211702 -0.12015,0.05921 -0.35553,0.148817 -0.390915,0.148817 -0.02109,0 -0.03841,0.01706 -0.03841,0.03777 0,0.0208 -0.01459,0.0333 -0.03257,0.02773 -0.01798,-0.0064 -0.07372,0.0064 -0.123882,0.02555 -0.236627,0.09229 -1.284035,0.23285 -1.40832,0.188986 -0.02154,-0.0073 -0.133005,-0.01852 -0.247757,-0.02427 -0.307001,-0.01533 -0.9556,-0.174462 -1.47351,-0.361686 -0.413415,-0.149428 -0.892743,-0.341141 -1.225399,-0.490122 -0.12046,-0.05392 -0.238233,-0.114011 -0.261705,-0.13348 -0.02346,-0.01943 -0.05556,-0.03549 -0.07153,-0.03549 -0.03777,0 -0.355782,-0.150112 -0.367014,-0.173266 -0.0046,-0.0099 -0.0312,-0.01788 -0.05875,-0.01788 -0.02746,0 -0.0499,-0.01076 -0.0499,-0.0239 0,-0.01323 -0.01552,-0.02399 -0.03458,-0.02399 -0.03321,0 -0.373654,-0.163833 -0.669635,-0.322402 -0.07891,-0.04215 -0.207981,-0.107926 -0.286877,-0.145906 -0.07883,-0.03795 -0.149309,-0.07454 -0.15648,-0.08129 -0.0073,-0.0073 -0.04106,-0.02655 -0.07536,-0.04425 -0.03421,-0.0177 -0.101725,-0.05264 -0.149968,-0.07764 -0.04817,-0.02509 -0.131709,-0.06842 -0.185507,-0.09615 -0.05374,-0.02782 -0.127123,-0.06861 -0.162995,-0.0905 -0.03595,-0.02199 -0.100218,-0.05565 -0.143015,-0.0749 -0.04279,-0.01934 -0.201228,-0.105464 -0.352076,-0.191604 -0.150852,-0.08612 -0.344692,-0.193173 -0.43074,-0.237849 -0.08603,-0.0447 -0.171827,-0.09502 -0.190572,-0.111877 -0.04379,-0.0395 -0.339818,-0.198683 -0.36938,-0.198683 -0.01242,0 -0.02637,-0.0096 -0.0312,-0.02126 -0.0046,-0.01168 -0.126054,-0.08868 -0.269497,-0.171058 -0.143434,-0.08229 -0.345354,-0.201849 -0.448701,-0.26551 -0.103338,-0.06377 -0.20017,-0.115727 -0.215152,-0.115727 -0.01504,0 -0.0272,-0.01076 -0.0272,-0.02399 0,-0.01323 -0.0176,-0.02399 -0.03914,-0.02399 -0.02154,0 -0.03914,-0.01076 -0.03914,-0.0239 0,-0.01323 -0.0167,-0.0239 -0.03686,-0.0239 -0.02026,0 -0.04087,-0.0082 -0.0457,-0.01916 -0.0055,-0.01049 -0.111348,-0.08147 -0.2368,-0.157502 -0.125463,-0.076 -0.234311,-0.147575 -0.241882,-0.158806 -0.0073,-0.01113 0.104477,-0.09359 0.248998,-0.183055 0.295991,-0.183274 0.286986,-0.177947 0.655421,-0.388609 0.148352,-0.08475 0.275655,-0.161853 0.28289,-0.171176 0.0073,-0.0093 0.08603,-0.05812 0.175174,-0.108648 0.401754,-0.227466 0.919418,-0.524305 1.050471,-0.602336 0.07883,-0.04698 0.216156,-0.12339 0.305043,-0.16979 0.08886,-0.04653 0.329462,-0.174707 0.53463,-0.285115 0.467927,-0.25178 0.679447,-0.361449 0.959843,-0.497703 0.121924,-0.05921 0.233408,-0.115617 0.247757,-0.125297 0.092,-0.06213 1.470237,-0.699634 1.525677,-0.705755 0.0073,-5.44e-4 0.08339,-0.03175 0.169526,-0.06888 0.08603,-0.03704 0.226903,-0.09241 0.31296,-0.122916 0.135863,-0.04808 0.233015,-0.08512 0.469431,-0.178539 0.144099,-0.05693 0.739337,-0.222148 1.004089,-0.278684 l 0.299924,-0.06414 0.43031,-3.52e-4 c 0.314256,-3.52e-4 0.500675,0.01168 0.69113,0.04461 0.143433,0.02482 0.298345,0.04489 0.344243,0.04461 0.04589,-2.83e-4 0.0791,0.0064 0.0739,0.01368 -0.0055,0.0073 0.0863,0.04406 0.203437,0.08074 0.301773,0.09428 0.701795,0.25324 0.717203,0.285016 0.0046,0.0099 0.01869,0.01797 0.03101,0.01797 0.02499,0 0.327053,0.185427 0.472868,0.290298 0.06113,0.04397 0.112499,0.06331 0.143433,0.05401 0.0333,-0.0099 0.03795,-0.0073 0.01514,0.0073 -0.0249,0.01651 -0.01379,0.03768 0.04571,0.08612 0.04334,0.0354 0.07901,0.05611 0.07946,0.04616 3.2e-4,-0.0099 0.01286,0.0018 0.02765,0.02427 0.01478,0.02326 0.04087,0.03494 0.05793,0.026 0.01706,-0.0091 0.02208,-0.0073 0.0113,0.0036 -0.02435,0.02463 0.0541,0.107343 0.101904,0.107343 0.01926,0 0.03503,0.01396 0.03503,0.03111 0,0.01706 0.04479,0.07362 0.09938,0.125461 0.05465,0.05191 0.143997,0.145323 0.198528,0.207624 0.05446,0.0624 0.109421,0.107443 0.121993,0.100327 0.01251,-0.0073 0.01696,0.0018 0.0095,0.01879 -0.0073,0.01742 0.0064,0.053 0.02838,0.07892 0.02291,0.02582 0.03303,0.03093 0.02253,0.01131 -0.01114,-0.02071 -0.0092,-0.02755 0.0046,-0.01624 0.01277,0.01086 0.0241,0.0323 0.0248,0.04781 0.0029,0.04452 0.07053,0.159627 0.09472,0.159627 0.01213,0 0.02189,0.01606 0.02189,0.03595 0,0.01971 0.0137,0.03594 0.03037,0.03594 0.0168,0 0.02291,0.0073 0.01386,0.01524 -0.0091,0.0082 0.0073,0.04498 0.03476,0.08138 0.02829,0.0364 0.05136,0.07828 0.05136,0.09316 0,0.02463 0.07089,0.140012 0.103721,0.168741 0.0073,0.0073 0.01696,0.03886 0.0209,0.07162 0.0036,0.03284 0.01869,0.06331 0.03257,0.06769 0.01395,0.0046 0.02528,0.02764 0.02528,0.05182 0,0.02418 0.02163,0.09041 0.04817,0.147384 0.02656,0.05693 0.05684,0.146563 0.06751,0.199148 0.01059,0.05264 0.02838,0.106348 0.0395,0.119495 0.01104,0.01323 0.0207,0.04014 0.02134,0.05967 6.4e-4,0.0198 0.01971,0.143397 0.04261,0.274843 0.05036,0.290033 0.06706,0.689762 0.04105,0.979887 z"
       id="path92547-3" /><text
       xml:space="preserve"
       style="font-style:normal;font-variant:normal;font-weight:normal;font-stretch:normal;font-size:14.2562px;line-height:1.25;font-family:Gidole;-inkscape-font-specification:'Gidole, Normal';font-variant-ligatures:normal;font-variant-caps:normal;font-variant-numeric:normal;font-variant-east-asian:normal;text-align:center;letter-spacing:0px;word-spacing:0px;text-anchor:middle;fill:#79ff9f;fill-opacity:1;stroke:#79ff9f;stroke-width:1.26284;stroke-linecap:round;stroke-linejoin:round;stroke-dasharray:none;stroke-opacity:1;paint-order:markers stroke fill"
       x="26.982424"
       y="23.027008"
       id="text23549-8-0-5-8-4-6-8-2-9"
       inkscape:label="minus"><tspan
         sodipodi:role="line"
         id="tspan43322-7-6-9-8-3-3-8-9-3"
         x="26.982424"
         y="23.027008"
         style="fill:#79ff9f;fill-opacity:1;stroke:#79ff9f;stroke-width:1.26284;stroke-opacity:1">+3</tspan></text><text
       xml:space="preserve"
       style="font-style:normal;font-variant:normal;font-weight:normal;font-stretch:normal;font-size:14.2562px;line-height:1.25;font-family:Gidole;-inkscape-font-specification:'Gidole, Normal';font-variant-ligatures:normal;font-variant-caps:normal;font-variant-numeric:normal;font-variant-east-asian:normal;text-align:center;letter-spacing:0px;word-spacing:0px;text-anchor:middle;fill:#79ff9f;fill-opacity:1;stroke:#79ff9f;stroke-width:1.26284;stroke-linecap:round;stroke-linejoin:round;stroke-dasharray:none;stroke-opacity:1;paint-order:markers stroke fill"
       x="-43.77816"
       y="53.218422"
       id="text23549-8-0-5-8-4-6-8-2-9-0"
       inkscape:label="minus"><tspan
         sodipodi:role="line"
         id="tspan43322-7-6-9-8-3-3-8-9-3-2"
         x="-43.77816"
         y="53.218422"
         style="stroke-width:1.26284;stroke:#79ff9f;stroke-opacity:1;fill:#79ff9f;fill-opacity:1">+2</tspan></text><text
       xml:space="preserve"
       style="font-style:normal;font-variant:normal;font-weight:normal;font-stretch:normal;font-size:14.2562px;line-height:1.25;font-family:Gidole;-inkscape-font-specification:'Gidole, Normal';font-variant-ligatures:normal;font-variant-caps:normal;font-variant-numeric:normal;font-variant-east-asian:normal;text-align:center;letter-spacing:0px;word-spacing:0px;text-anchor:middle;fill:#79ff9f;fill-opacity:1;stroke:#79ff9f;stroke-width:1.26284;stroke-linecap:round;stroke-linejoin:round;stroke-dasharray:none;stroke-opacity:1;paint-order:markers stroke fill"
       x="-27.072828"
       y="-50.619606"
       id="text23549-8-0-5-8-4-6-8-2-9-6"
       inkscape:label="minus"
       transform="scale(-1)"><tspan
         sodipodi:role="line"
         id="tspan43322-7-6-9-8-3-3-8-9-3-0"
         x="-27.072828"
         y="-50.619606"
         style="fill:#79ff9f;fill-opacity:1;stroke:#79ff9f;stroke-width:1.26284;stroke-opacity:1">+3</tspan></text></g><g
     inkscape:label="yodagames"
     inkscape:groupmode="layer"
     id="layer1"
     style="display:none"
     sodipodi:insensitive="true"><image
       width="54"
       height="73.974915"
       preserveAspectRatio="none"
       xlink:href="spielkarte%2050x70%20_yodagames_vorlage.jpg"
       id="image1-6"
       x="0"
       y="-2.32833e-16"
       style="display:inline;stroke-width:3.126" /></g></svg>
