<?xml version="1.0" encoding="UTF-8" standalone="no"?>
<!-- Created with Inkscape (http://www.inkscape.org/) -->

<svg
   width="6cm"
   height="9cm"
   viewBox="0 0 60 90"
   version="1.1"
   id="svg5"
   inkscape:version="1.2.1 (9c6d41e410, 2022-07-14)"
   sodipodi:docname="ereigniskarten_plus.svg"
   xmlns:inkscape="http://www.inkscape.org/namespaces/inkscape"
   xmlns:sodipodi="http://sodipodi.sourceforge.net/DTD/sodipodi-0.dtd"
   xmlns="http://www.w3.org/2000/svg"
   xmlns:svg="http://www.w3.org/2000/svg">
  <sodipodi:namedview
     id="namedview7"
     pagecolor="#ffffff"
     bordercolor="#666666"
     borderopacity="1.0"
     inkscape:showpageshadow="2"
     inkscape:pageopacity="0.0"
     inkscape:pagecheckerboard="false"
     inkscape:deskcolor="#d1d1d1"
     inkscape:document-units="mm"
     showgrid="false"
     inkscape:zoom="2.3786088"
     inkscape:cx="2.9428967"
     inkscape:cy="163.96139"
     inkscape:window-width="1920"
     inkscape:window-height="1128"
     inkscape:window-x="0"
     inkscape:window-y="0"
     inkscape:window-maximized="1"
     inkscape:current-layer="g6566"
     showguides="true"
     shape-rendering="auto">
    <sodipodi:guide
       position="4.783083,95.339258"
       orientation="1,0"
       id="guide6752"
       inkscape:locked="false" />
    <sodipodi:guide
       position="-11.758872,84.966104"
       orientation="0,-1"
       id="guide6754"
       inkscape:locked="false" />
    <inkscape:grid
       type="xygrid"
       id="grid6786" />
    <sodipodi:guide
       position="5.8954279,4.9612336"
       orientation="0,-1"
       id="guide6876"
       inkscape:locked="false" />
    <sodipodi:guide
       position="54.949838,88.553954"
       orientation="1,0"
       id="guide7152"
       inkscape:locked="false" />
  </sodipodi:namedview>
  <defs
     id="defs2" />
  <g
     inkscape:groupmode="layer"
     id="layer2"
     inkscape:label="cover"
     style="display:none"
     sodipodi:insensitive="true">
    <g
       id="g184951"
       transform="matrix(2.0228,0,0,2.0228,-27.78156,-39.272371)">
      <text
         xml:space="preserve"
         style="font-style:normal;font-variant:normal;font-weight:normal;font-stretch:normal;font-size:3.87147px;line-height:1.25;font-family:Gidole;-inkscape-font-specification:Gidole;text-align:start;letter-spacing:0px;text-anchor:start;fill:#7fad0a;fill-opacity:1;stroke:#ffffff;stroke-width:1;stroke-dasharray:none;stroke-opacity:0.5;paint-order:markers fill stroke"
         x="18.990383"
         y="46.02026"
         id="text1563-3-5-1-4-8"
         transform="matrix(0.99325239,-0.13952946,-9.5074731e-4,1.006927,0,0)"
         inkscape:export-filename="../nl_logo.png"
         inkscape:export-xdpi="1200"
         inkscape:export-ydpi="1200"><tspan
           sodipodi:role="line"
           id="tspan1561-6-3-9-7-4"
           style="font-style:normal;font-variant:normal;font-weight:normal;font-stretch:normal;font-family:Gidole;-inkscape-font-specification:Gidole;text-align:start;text-anchor:start;fill:#7fad0a;fill-opacity:1;stroke:#ffffff;stroke-width:1;stroke-dasharray:none;stroke-opacity:0.5;paint-order:markers fill stroke"
           x="18.990383"
           y="46.02026"
           rotate="0 0 0 0 0 0 0 0 0 0 0 0">Lichtenberg</tspan></text>
      <text
         xml:space="preserve"
         style="font-style:normal;font-variant:normal;font-weight:normal;font-stretch:normal;font-size:11.4548px;line-height:1.25;font-family:Gidole;-inkscape-font-specification:Gidole;text-align:start;letter-spacing:0px;text-anchor:start;fill:#083160;fill-opacity:1;stroke:#083160;stroke-width:1;stroke-dasharray:none;stroke-opacity:1;paint-order:markers stroke fill"
         x="18.898399"
         y="42.785038"
         id="text1563-3-5-1"
         transform="matrix(0.97949356,-0.14148941,-9.3757801e-4,1.0210712,0,0)"><tspan
           sodipodi:role="line"
           id="tspan1561-6-3-9"
           style="font-style:normal;font-variant:normal;font-weight:normal;font-stretch:normal;font-family:Gidole;-inkscape-font-specification:Gidole;text-align:start;text-anchor:start;fill:#083160;fill-opacity:1;stroke:#083160;stroke-width:1;stroke-dasharray:none;stroke-opacity:1;paint-order:markers stroke fill"
           x="18.898399"
           y="42.785038"
           rotate="0 0 0 0">NEU</tspan></text>
      <text
         xml:space="preserve"
         style="font-style:normal;font-variant:normal;font-weight:normal;font-stretch:normal;font-size:3.87147px;line-height:1.25;font-family:Gidole;-inkscape-font-specification:Gidole;text-align:start;letter-spacing:0px;text-anchor:start;fill:#ffffff;fill-opacity:0.5;stroke:#ffffff;stroke-width:1;stroke-dasharray:none;stroke-opacity:0.5;paint-order:markers fill stroke"
         x="18.990383"
         y="46.02026"
         id="text1563-3-5-1-4-8-5"
         transform="matrix(0.99325239,-0.13952946,-9.5074731e-4,1.006927,0,0)"><tspan
           sodipodi:role="line"
           id="tspan1561-6-3-9-7-4-0"
           style="font-style:normal;font-variant:normal;font-weight:normal;font-stretch:normal;font-family:Gidole;-inkscape-font-specification:Gidole;text-align:start;text-anchor:start;fill:#ffffff;fill-opacity:0.5;stroke:#ffffff;stroke-width:1;stroke-dasharray:none;stroke-opacity:0.5;paint-order:markers fill stroke"
           x="18.990383"
           y="46.02026"
           rotate="0 0 0 0 0 0 0 0 0 0 0 0">Lichtenberg</tspan></text>
      <text
         xml:space="preserve"
         style="font-style:normal;font-variant:normal;font-weight:normal;font-stretch:normal;font-size:3.87147px;line-height:1.25;font-family:Gidole;-inkscape-font-specification:Gidole;text-align:start;letter-spacing:0px;text-anchor:start;fill:#ffffff;fill-opacity:0;stroke:#ffffff;stroke-width:1;stroke-dasharray:none;stroke-opacity:0.5;paint-order:markers fill stroke"
         x="-38.417702"
         y="-32.701302"
         id="text1563-3-5-1-4-8-5-3"
         transform="matrix(-0.99325239,0.13952946,9.5074731e-4,-1.006927,0,0)"><tspan
           sodipodi:role="line"
           id="tspan1561-6-3-9-7-4-0-6"
           style="font-style:normal;font-variant:normal;font-weight:normal;font-stretch:normal;font-family:Gidole;-inkscape-font-specification:Gidole;text-align:start;text-anchor:start;fill:#ffffff;fill-opacity:0;stroke:#ffffff;stroke-width:1;stroke-dasharray:none;stroke-opacity:0.5;paint-order:markers fill stroke"
           x="-38.417702"
           y="-32.701302"
           rotate="0 0 0 0 0 0 0 0 0 0 0 0">Lichtenberg</tspan></text>
      <text
         xml:space="preserve"
         style="font-style:normal;font-variant:normal;font-weight:normal;font-stretch:normal;font-size:3.87147px;line-height:1.25;font-family:Gidole;-inkscape-font-specification:Gidole;text-align:start;letter-spacing:0px;text-anchor:start;fill:#7fad0a;fill-opacity:1;stroke:#7fad0a;stroke-width:0.396875;stroke-dasharray:none;stroke-opacity:1;paint-order:markers stroke fill"
         x="18.990383"
         y="46.02026"
         id="text1563-3-5-1-4"
         transform="matrix(0.99325239,-0.13952946,-9.5074731e-4,1.006927,0,0)"><tspan
           sodipodi:role="line"
           id="tspan1561-6-3-9-7"
           style="font-style:normal;font-variant:normal;font-weight:normal;font-stretch:normal;font-family:Gidole;-inkscape-font-specification:Gidole;text-align:start;text-anchor:start;fill:#7fad0a;fill-opacity:1;stroke:#7fad0a;stroke-width:0.396875;stroke-dasharray:none;stroke-opacity:1;paint-order:markers stroke fill"
           x="18.990383"
           y="46.02026"
           rotate="0 0 0 0 0 0 0 0 0 0 0 0">Lichtenberg</tspan></text>
    </g>
    <text
       xml:space="preserve"
       style="font-style:normal;font-variant:normal;font-weight:normal;font-stretch:normal;font-size:7.85763px;line-height:1.25;font-family:Gidole;-inkscape-font-specification:Gidole;text-align:center;letter-spacing:0px;word-spacing:0px;text-anchor:middle;stroke:#000000;stroke-width:0.4;stroke-dasharray:none;stroke-opacity:1"
       x="29.555222"
       y="68.67746"
       id="text184955"><tspan
         sodipodi:role="line"
         id="tspan184953"
         style="font-style:normal;font-variant:normal;font-weight:normal;font-stretch:normal;font-family:Gidole;-inkscape-font-specification:Gidole;stroke:#000000;stroke-width:0.4;stroke-dasharray:none;stroke-opacity:1"
         x="29.555222"
         y="68.67746">Ereignis</tspan><tspan
         sodipodi:role="line"
         style="font-style:normal;font-variant:normal;font-weight:normal;font-stretch:normal;font-family:Gidole;-inkscape-font-specification:Gidole;stroke:#000000;stroke-width:0.4;stroke-dasharray:none;stroke-opacity:1"
         x="29.555222"
         y="78.499496"
         id="tspan2425">+</tspan></text>
    <path
       style="display:inline;fill:none;stroke:#000000;stroke-width:0.264583px;stroke-linecap:butt;stroke-linejoin:miter;stroke-opacity:1"
       d="M 0.00575595,5.0572463 V 0.02334873 H 4.7888389"
       id="path8730-6" />
    <path
       style="display:inline;fill:none;stroke:#000000;stroke-width:0.264583px;stroke-linecap:butt;stroke-linejoin:miter;stroke-opacity:1"
       d="m 54.949837,0.02334873 h 5.055917 V 5.0338974"
       id="path8732-6" />
    <path
       style="display:inline;fill:none;stroke:#000000;stroke-width:0.264583px;stroke-linecap:butt;stroke-linejoin:miter;stroke-opacity:1"
       d="M 60.005754,85.062113 V 90.02335 H 54.955591"
       id="path8734-4" />
    <path
       style="display:inline;fill:none;stroke:#000000;stroke-width:0.264583px;stroke-linecap:butt;stroke-linejoin:miter;stroke-opacity:1"
       d="M 4.7764554,90.02335 H 0.00575595 v -4.984481"
       id="path8736-9" />
  </g>
  <g
     inkscape:label="003"
     inkscape:groupmode="layer"
     id="g10817"
     style="display:none"
     sodipodi:insensitive="true">
    <text
       xml:space="preserve"
       style="font-style:normal;font-variant:normal;font-weight:normal;font-stretch:normal;font-size:5.04019px;line-height:1.25;font-family:Gidole;-inkscape-font-specification:Gidole;letter-spacing:0px;word-spacing:0px;display:inline;fill:#000000;fill-opacity:1;stroke:none;stroke-width:0.264583"
       x="4.3400974"
       y="8.7155991"
       id="text10783"><tspan
         sodipodi:role="line"
         id="tspan10781"
         style="font-style:normal;font-variant:normal;font-weight:normal;font-stretch:normal;font-family:Gidole;-inkscape-font-specification:Gidole;stroke-width:0.264583"
         x="4.3400974"
         y="8.7155991">Ereignis+</tspan></text>
    <text
       xml:space="preserve"
       style="font-style:normal;font-variant:normal;font-weight:normal;font-stretch:normal;font-size:3.52778px;line-height:1.25;font-family:Gidole;-inkscape-font-specification:'Gidole, Normal';font-variant-ligatures:normal;font-variant-caps:normal;font-variant-numeric:normal;font-variant-east-asian:normal;letter-spacing:0px;word-spacing:0px;fill:#000000;fill-opacity:1;stroke:none;stroke-width:0.264583"
       x="4.6383886"
       y="21.302832"
       id="text10787"><tspan
         sodipodi:role="line"
         id="tspan4951"
         x="4.6383886"
         y="21.302832">Weniger Planungsaufwand für</tspan><tspan
         sodipodi:role="line"
         id="tspan4953"
         x="4.6383886"
         y="25.712557">alle geplanten Streuobstwiesen-</tspan><tspan
         sodipodi:role="line"
         id="tspan4955"
         x="4.6383886"
         y="30.122282">projekte.</tspan></text>
    <text
       xml:space="preserve"
       style="font-style:normal;font-variant:normal;font-weight:normal;font-stretch:normal;font-size:2.82222px;line-height:1.25;font-family:Gidole;-inkscape-font-specification:'Gidole, Normal';font-variant-ligatures:normal;font-variant-caps:normal;font-variant-numeric:normal;font-variant-east-asian:normal;letter-spacing:0px;word-spacing:0px;fill:#000000;fill-opacity:1;stroke:none;stroke-width:0.264583"
       x="4.6383886"
       y="64.189651"
       id="text10791"><tspan
         sodipodi:role="line"
         id="tspan5705"
         x="4.6383886"
         y="64.189651">Große Unterstützung für Streuobstwiesen.</tspan></text>
    <text
       xml:space="preserve"
       style="font-style:normal;font-variant:normal;font-weight:normal;font-stretch:normal;font-size:2.82222px;line-height:1.25;font-family:Gidole;-inkscape-font-specification:'Gidole, Normal';font-variant-ligatures:normal;font-variant-caps:normal;font-variant-numeric:normal;font-variant-east-asian:normal;text-align:end;letter-spacing:0px;word-spacing:0px;text-anchor:end;fill:#808080;fill-opacity:1;stroke:none;stroke-width:0.264583;stroke-opacity:1"
       x="55.151028"
       y="85.025024"
       id="text10795"><tspan
         sodipodi:role="line"
         id="tspan10793"
         x="55.151028"
         y="85.025024">2x 003</tspan></text>
    <text
       xml:space="preserve"
       style="font-style:normal;font-variant:normal;font-weight:normal;font-stretch:normal;font-size:5.04019px;line-height:1.25;font-family:Gidole;-inkscape-font-specification:Gidole;letter-spacing:0px;word-spacing:0px;fill:#000000;fill-opacity:1;stroke:none;stroke-width:0.264583"
       x="4.7086477"
       y="13.49548"
       id="text10799"><tspan
         sodipodi:role="line"
         id="tspan10797"
         style="font-style:normal;font-variant:normal;font-weight:normal;font-stretch:normal;font-family:Gidole;-inkscape-font-specification:Gidole;stroke:#000000;stroke-width:0.264583;stroke-opacity:1"
         x="4.7086477"
         y="13.49548">Bürgerbegehren</tspan></text>
    <text
       xml:space="preserve"
       style="font-style:normal;font-variant:normal;font-weight:normal;font-stretch:normal;font-size:5.04019px;line-height:1.25;font-family:Gidole;-inkscape-font-specification:Gidole;letter-spacing:0px;word-spacing:0px;display:inline;fill:#363fb6;fill-opacity:1;stroke:#363fb6;stroke-width:0.264583;stroke-opacity:1"
       x="8.2544928"
       y="42.340965"
       id="text10803-4"><tspan
         sodipodi:role="line"
         id="tspan10801-7"
         style="font-style:normal;font-variant:normal;font-weight:normal;font-stretch:normal;font-family:Gidole;-inkscape-font-specification:Gidole;fill:#363fb6;fill-opacity:1;stroke:#363fb6;stroke-width:0.264583;stroke-opacity:1"
         x="8.2544928"
         y="42.340965">-1 Planungsaufwand</tspan></text>
    <rect
       style="opacity:1;fill:none;stroke:#363fb6;stroke-width:0.750003;stroke-linecap:round;stroke-linejoin:round;stroke-dasharray:none;stroke-opacity:1;paint-order:markers fill stroke"
       id="rect10805"
       width="11.906249"
       height="11.906252"
       x="6.6145835"
       y="43.65625" />
    <rect
       style="opacity:1;fill:none;fill-opacity:1;stroke:#7fae52;stroke-width:0.750002;stroke-linecap:round;stroke-linejoin:round;stroke-dasharray:none;stroke-opacity:1;paint-order:markers fill stroke"
       id="rect10807"
       width="3.96875"
       height="3.96875"
       x="12.567708"
       y="49.609375" />
    <path
       style="fill:none;stroke:#000000;stroke-width:0.264583px;stroke-linecap:butt;stroke-linejoin:miter;stroke-opacity:1"
       d="M 0,5.0338976 V 0 h 4.7830829"
       id="path10809" />
    <path
       style="fill:none;stroke:#000000;stroke-width:0.264583px;stroke-linecap:butt;stroke-linejoin:miter;stroke-opacity:1"
       d="m 54.944081,0 h 5.055917 v 5.0105487"
       id="path10811" />
    <path
       style="fill:none;stroke:#000000;stroke-width:0.264583px;stroke-linecap:butt;stroke-linejoin:miter;stroke-opacity:1"
       d="m 59.999998,85.038762 v 4.961237 h -5.050163"
       id="path10813" />
    <path
       style="fill:none;stroke:#000000;stroke-width:0.264583px;stroke-linecap:butt;stroke-linejoin:miter;stroke-opacity:1"
       d="M 4.7706994,89.999999 H 0 v -4.98448"
       id="path10815" />
    <rect
       style="display:inline;fill:#363fb6;fill-opacity:1;stroke:#363fb6;stroke-width:0.750001;stroke-linecap:round;stroke-linejoin:round;stroke-dasharray:none;stroke-opacity:1;paint-order:markers fill stroke"
       id="rect25110-3"
       width="12.192707"
       height="4.2197051"
       x="42.38213"
       y="5.4088979" />
    <text
       xml:space="preserve"
       style="font-style:normal;font-variant:normal;font-weight:normal;font-stretch:normal;font-size:5.04019px;line-height:1.25;font-family:Gidole;-inkscape-font-specification:Gidole;text-align:center;letter-spacing:0px;word-spacing:0px;text-anchor:middle;display:inline;fill:#ffffff;fill-opacity:1;stroke:#ffffff;stroke-width:0.265;stroke-linecap:round;stroke-linejoin:round;stroke-dasharray:none;stroke-opacity:1"
       x="48.672951"
       y="9.2845411"
       id="text25126-6"><tspan
         sodipodi:role="line"
         id="tspan25124-7"
         style="font-style:normal;font-variant:normal;font-weight:normal;font-stretch:normal;font-family:Gidole;-inkscape-font-specification:Gidole;text-align:center;text-anchor:middle;fill:#ffffff;fill-opacity:1;stroke:#ffffff;stroke-width:0.265;stroke-linecap:round;stroke-linejoin:round;stroke-dasharray:none;stroke-opacity:1"
         x="48.672951"
         y="9.2845411">-1</tspan></text>
  </g>
  <g
     inkscape:label="006"
     inkscape:groupmode="layer"
     id="g25128"
     style="display:none"
     sodipodi:insensitive="true">
    <text
       xml:space="preserve"
       style="font-style:normal;font-variant:normal;font-weight:normal;font-stretch:normal;font-size:5.04019px;line-height:1.25;font-family:Gidole;-inkscape-font-specification:Gidole;letter-spacing:0px;word-spacing:0px;display:inline;fill:#000000;fill-opacity:1;stroke:none;stroke-width:0.264583"
       x="4.3400974"
       y="8.7155991"
       id="text25080"><tspan
         sodipodi:role="line"
         id="tspan25078"
         style="font-style:normal;font-variant:normal;font-weight:normal;font-stretch:normal;font-family:Gidole;-inkscape-font-specification:Gidole;stroke-width:0.264583"
         x="4.3400974"
         y="8.7155991">Ereignis+</tspan></text>
    <text
       xml:space="preserve"
       style="font-style:normal;font-variant:normal;font-weight:normal;font-stretch:normal;font-size:3.52778px;line-height:1.25;font-family:Gidole;-inkscape-font-specification:'Gidole, Normal';font-variant-ligatures:normal;font-variant-caps:normal;font-variant-numeric:normal;font-variant-east-asian:normal;letter-spacing:0px;word-spacing:0px;fill:#000000;fill-opacity:1;stroke:none;stroke-width:0.264583"
       x="4.6383886"
       y="21.302832"
       id="text25084"><tspan
         sodipodi:role="line"
         id="tspan5964"
         x="4.6383886"
         y="21.302832" /><tspan
         sodipodi:role="line"
         id="tspan5966"
         x="4.6383886"
         y="25.712557">Für eine erfolgreiche Integration</tspan><tspan
         sodipodi:role="line"
         id="tspan5968"
         x="4.6383886"
         y="30.122282">von Flüchtlingen.</tspan></text>
    <text
       xml:space="preserve"
       style="font-style:normal;font-variant:normal;font-weight:normal;font-stretch:normal;font-size:2.82222px;line-height:1.25;font-family:Gidole;-inkscape-font-specification:'Gidole, Normal';font-variant-ligatures:normal;font-variant-caps:normal;font-variant-numeric:normal;font-variant-east-asian:normal;letter-spacing:0px;word-spacing:0px;fill:#000000;fill-opacity:1;stroke:none;stroke-width:0.264583"
       x="4.6383886"
       y="64.189651"
       id="text25094"><tspan
         sodipodi:role="line"
         id="tspan5970"
         x="4.6383886"
         y="64.189651">Siehe Projekt 028.</tspan></text>
    <text
       xml:space="preserve"
       style="font-style:normal;font-variant:normal;font-weight:normal;font-stretch:normal;font-size:2.82222px;line-height:1.25;font-family:Gidole;-inkscape-font-specification:'Gidole, Normal';font-variant-ligatures:normal;font-variant-caps:normal;font-variant-numeric:normal;font-variant-east-asian:normal;text-align:end;letter-spacing:0px;word-spacing:0px;text-anchor:end;fill:#808080;fill-opacity:1;stroke:none;stroke-width:0.264583;stroke-opacity:1"
       x="55.151028"
       y="85.025024"
       id="text25098"><tspan
         sodipodi:role="line"
         id="tspan25096"
         x="55.151028"
         y="85.025024">2x 006</tspan></text>
    <text
       xml:space="preserve"
       style="font-style:normal;font-variant:normal;font-weight:normal;font-stretch:normal;font-size:5.04019px;line-height:1;font-family:Gidole;-inkscape-font-specification:Gidole;letter-spacing:0px;word-spacing:0px;fill:#000000;fill-opacity:1;stroke:none;stroke-width:0.264583"
       x="4.7086477"
       y="13.49548"
       id="text25102"><tspan
         sodipodi:role="line"
         id="tspan25100"
         style="font-style:normal;font-variant:normal;font-weight:normal;font-stretch:normal;font-family:Gidole;-inkscape-font-specification:Gidole;stroke:#000000;stroke-width:0.264583;stroke-opacity:1"
         x="4.7086477"
         y="13.49548">Refugees are</tspan><tspan
         sodipodi:role="line"
         style="font-style:normal;font-variant:normal;font-weight:normal;font-stretch:normal;font-family:Gidole;-inkscape-font-specification:Gidole;stroke:#000000;stroke-width:0.264583;stroke-opacity:1"
         x="4.7086477"
         y="18.535669"
         id="tspan5954">welcome</tspan></text>
    <text
       xml:space="preserve"
       style="font-style:normal;font-variant:normal;font-weight:normal;font-stretch:normal;font-size:5.04019px;line-height:1.25;font-family:Gidole;-inkscape-font-specification:Gidole;text-align:center;letter-spacing:0px;word-spacing:0px;text-anchor:middle;fill:#363fb6;fill-opacity:1;stroke:#363fb6;stroke-width:0.264583;stroke-opacity:1"
       x="30.030218"
       y="42.174984"
       id="text25106"><tspan
         sodipodi:role="line"
         id="tspan25104"
         style="font-style:normal;font-variant:normal;font-weight:normal;font-stretch:normal;font-family:Gidole;-inkscape-font-specification:Gidole;text-align:center;text-anchor:middle;fill:#363fb6;fill-opacity:1;stroke:#363fb6;stroke-width:0.264583;stroke-opacity:1"
         x="30.030218"
         y="42.174984">+1 Planungsressource</tspan></text>
    <rect
       style="opacity:1;fill:none;stroke:#363fb6;stroke-width:0.750003;stroke-linecap:round;stroke-linejoin:round;stroke-dasharray:none;stroke-opacity:1;paint-order:markers fill stroke"
       id="rect25108"
       width="11.906249"
       height="11.906252"
       x="6.6145835"
       y="43.65625" />
    <rect
       style="display:inline;fill:#363fb6;fill-opacity:1;stroke:#363fb6;stroke-width:0.750001;stroke-linecap:round;stroke-linejoin:round;stroke-dasharray:none;stroke-opacity:1;paint-order:markers fill stroke"
       id="rect25110"
       width="12.192707"
       height="4.2197051"
       x="42.376373"
       y="5.3855491" />
    <rect
       style="opacity:1;fill:none;fill-opacity:1;stroke:#000000;stroke-width:0.750002;stroke-linecap:round;stroke-linejoin:round;stroke-dasharray:none;stroke-opacity:1;paint-order:markers fill stroke"
       id="rect25112"
       width="3.96875"
       height="3.96875"
       x="12.567708"
       y="49.609375" />
    <path
       style="fill:none;stroke:#000000;stroke-width:0.264583px;stroke-linecap:butt;stroke-linejoin:miter;stroke-opacity:1"
       d="M 0,5.0338976 V 0 h 4.7830829"
       id="path25116" />
    <path
       style="fill:none;stroke:#000000;stroke-width:0.264583px;stroke-linecap:butt;stroke-linejoin:miter;stroke-opacity:1"
       d="m 54.944081,0 h 5.055917 v 5.0105487"
       id="path25118" />
    <path
       style="fill:none;stroke:#000000;stroke-width:0.264583px;stroke-linecap:butt;stroke-linejoin:miter;stroke-opacity:1"
       d="m 59.999998,85.038762 v 4.961237 h -5.050163"
       id="path25120" />
    <path
       style="fill:none;stroke:#000000;stroke-width:0.264583px;stroke-linecap:butt;stroke-linejoin:miter;stroke-opacity:1"
       d="M 4.7706994,89.999999 H 0 v -4.98448"
       id="path25122" />
    <text
       xml:space="preserve"
       style="font-style:normal;font-variant:normal;font-weight:normal;font-stretch:normal;font-size:5.04019px;line-height:1.25;font-family:Gidole;-inkscape-font-specification:Gidole;text-align:center;letter-spacing:0px;word-spacing:0px;text-anchor:middle;display:inline;fill:#ffffff;fill-opacity:1;stroke:#ffffff;stroke-width:0.265;stroke-linecap:round;stroke-linejoin:round;stroke-dasharray:none;stroke-opacity:1"
       x="48.667194"
       y="9.2611914"
       id="text25126"><tspan
         sodipodi:role="line"
         id="tspan25124"
         style="font-style:normal;font-variant:normal;font-weight:normal;font-stretch:normal;font-family:Gidole;-inkscape-font-specification:Gidole;text-align:center;text-anchor:middle;fill:#ffffff;fill-opacity:1;stroke:#ffffff;stroke-width:0.265;stroke-linecap:round;stroke-linejoin:round;stroke-dasharray:none;stroke-opacity:1"
         x="48.667194"
         y="9.2611914">+1</tspan></text>
  </g>
  <g
     inkscape:label="007"
     inkscape:groupmode="layer"
     id="g6566"
     style="display:inline">
    <text
       xml:space="preserve"
       style="font-style:normal;font-variant:normal;font-weight:normal;font-stretch:normal;font-size:5.04019px;line-height:1.25;font-family:Gidole;-inkscape-font-specification:Gidole;letter-spacing:0px;word-spacing:0px;display:inline;fill:#000000;fill-opacity:1;stroke:none;stroke-width:0.264583"
       x="4.3400974"
       y="8.7155991"
       id="text6520"><tspan
         sodipodi:role="line"
         id="tspan6518"
         style="font-style:normal;font-variant:normal;font-weight:normal;font-stretch:normal;font-family:Gidole;-inkscape-font-specification:Gidole;stroke-width:0.264583"
         x="4.3400974"
         y="8.7155991">Ereignis+</tspan></text>
    <text
       xml:space="preserve"
       style="font-style:normal;font-variant:normal;font-weight:normal;font-stretch:normal;font-size:3.52778px;line-height:1.25;font-family:Gidole;-inkscape-font-specification:'Gidole, Normal';font-variant-ligatures:normal;font-variant-caps:normal;font-variant-numeric:normal;font-variant-east-asian:normal;letter-spacing:0px;word-spacing:0px;fill:#000000;fill-opacity:1;stroke:none;stroke-width:0.264583"
       x="4.6383886"
       y="21.302832"
       id="text6528"><tspan
         sodipodi:role="line"
         id="tspan14004"
         x="4.6383886"
         y="21.302832" /><tspan
         sodipodi:role="line"
         id="tspan14006"
         x="4.6383886"
         y="25.712557">Ein Feld, das mindestens schon</tspan><tspan
         sodipodi:role="line"
         id="tspan14008"
         x="4.6383886"
         y="30.122282">eine Energie- und Wohn-</tspan><tspan
         sodipodi:role="line"
         id="tspan14010"
         x="4.6383886"
         y="34.532005">bebauung besitzt erhält eine</tspan><tspan
         sodipodi:role="line"
         id="tspan14012"
         x="4.6383886"
         y="38.94173">weitere Energiebebauung dazu.</tspan></text>
    <text
       xml:space="preserve"
       style="font-style:normal;font-variant:normal;font-weight:normal;font-stretch:normal;font-size:2.82222px;line-height:1.25;font-family:Gidole;-inkscape-font-specification:'Gidole, Normal';font-variant-ligatures:normal;font-variant-caps:normal;font-variant-numeric:normal;font-variant-east-asian:normal;letter-spacing:0px;word-spacing:0px;fill:#000000;fill-opacity:1;stroke:none;stroke-width:0.264583"
       x="4.6383886"
       y="64.189651"
       id="text6532"><tspan
         sodipodi:role="line"
         id="tspan6654"
         x="4.6383886"
         y="64.189651">Nur für Stadtteile einer einzigen Spieler:in.</tspan><tspan
         sodipodi:role="line"
         id="tspan6656"
         x="4.6383886"
         y="67.71743">Der maximale Ausbau von 3 oder</tspan><tspan
         sodipodi:role="line"
         id="tspan6658"
         x="4.6383886"
         y="71.245201">4 Bebauungen je nach Art des Feldes</tspan><tspan
         sodipodi:role="line"
         id="tspan6660"
         x="4.6383886"
         y="74.77298">muss berücksichtigt werden. Diskussion,</tspan><tspan
         sodipodi:role="line"
         id="tspan6662"
         x="4.6383886"
         y="78.300751">wenn es mehrere Möglichkeiten gibt.</tspan></text>
    <text
       xml:space="preserve"
       style="font-style:normal;font-variant:normal;font-weight:normal;font-stretch:normal;font-size:2.82222px;line-height:1.25;font-family:Gidole;-inkscape-font-specification:'Gidole, Normal';font-variant-ligatures:normal;font-variant-caps:normal;font-variant-numeric:normal;font-variant-east-asian:normal;text-align:end;letter-spacing:0px;word-spacing:0px;text-anchor:end;fill:#808080;fill-opacity:1;stroke:none;stroke-width:0.264583;stroke-opacity:1"
       x="55.151028"
       y="85.025024"
       id="text6536"><tspan
         sodipodi:role="line"
         id="tspan6534"
         x="55.151028"
         y="85.025024">4x 007</tspan></text>
    <text
       xml:space="preserve"
       style="font-style:normal;font-variant:normal;font-weight:normal;font-stretch:normal;font-size:5.04019px;line-height:1;font-family:Gidole;-inkscape-font-specification:Gidole;letter-spacing:0px;word-spacing:0px;fill:#000000;fill-opacity:1;stroke:none;stroke-width:0.264583"
       x="4.7086477"
       y="13.49548"
       id="text6542"><tspan
         sodipodi:role="line"
         style="font-style:normal;font-variant:normal;font-weight:normal;font-stretch:normal;font-family:Gidole;-inkscape-font-specification:Gidole;stroke:#000000;stroke-width:0.264583;stroke-opacity:1"
         x="4.7086477"
         y="13.49548"
         id="tspan6540">Technischer</tspan><tspan
         sodipodi:role="line"
         style="font-style:normal;font-variant:normal;font-weight:normal;font-stretch:normal;font-family:Gidole;-inkscape-font-specification:Gidole;stroke:#000000;stroke-width:0.264583;stroke-opacity:1"
         x="4.7086477"
         y="18.535669"
         id="tspan6570">Fortschritt</tspan></text>
    <text
       xml:space="preserve"
       style="font-style:normal;font-variant:normal;font-weight:normal;font-stretch:normal;font-size:5.04019px;line-height:1.25;font-family:Gidole;-inkscape-font-specification:Gidole;text-align:center;letter-spacing:0px;word-spacing:0px;text-anchor:middle;fill:#000001;fill-opacity:1;stroke:#000000;stroke-width:0.264583;stroke-opacity:1"
       x="12.567715"
       y="44.291653"
       id="text6546"><tspan
         sodipodi:role="line"
         id="tspan6544"
         style="font-style:normal;font-variant:normal;font-weight:normal;font-stretch:normal;font-family:Gidole;-inkscape-font-specification:Gidole;text-align:center;text-anchor:middle;fill:#000001;fill-opacity:1;stroke:#000000;stroke-width:0.264583;stroke-opacity:1"
         x="12.567715"
         y="44.291653">+</tspan></text>
    <rect
       style="opacity:1;fill:none;stroke:#363fb6;stroke-width:0.750003;stroke-linecap:round;stroke-linejoin:round;stroke-dasharray:none;stroke-opacity:1;paint-order:markers fill stroke"
       id="rect6548"
       width="11.906249"
       height="11.906252"
       x="6.6145835"
       y="45.772919" />
    <rect
       style="display:inline;fill:none;fill-opacity:1;stroke:#cec03b;stroke-width:0.750002;stroke-linecap:round;stroke-linejoin:round;stroke-dasharray:none;stroke-opacity:0.999911;paint-order:markers fill stroke"
       id="rect6552-5"
       width="3.96875"
       height="3.96875"
       x="8.5774698"
       y="51.726044" />
    <path
       style="fill:none;stroke:#000000;stroke-width:0.264583px;stroke-linecap:butt;stroke-linejoin:miter;stroke-opacity:1"
       d="M 0,5.0338976 V 0 h 4.7830829"
       id="path6554" />
    <path
       style="fill:none;stroke:#000000;stroke-width:0.264583px;stroke-linecap:butt;stroke-linejoin:miter;stroke-opacity:1"
       d="m 54.944081,0 h 5.055917 v 5.0105487"
       id="path6556" />
    <path
       style="fill:none;stroke:#000000;stroke-width:0.264583px;stroke-linecap:butt;stroke-linejoin:miter;stroke-opacity:1"
       d="m 59.999998,85.038762 v 4.961237 h -5.050163"
       id="path6558" />
    <path
       style="fill:none;stroke:#000000;stroke-width:0.264583px;stroke-linecap:butt;stroke-linejoin:miter;stroke-opacity:1"
       d="M 4.7706994,89.999999 H 0 v -4.98448"
       id="path6560" />
    <rect
       style="display:inline;fill:#cec03b;fill-opacity:1;stroke:none;stroke-width:0.750002;stroke-linecap:round;stroke-linejoin:round;stroke-dasharray:none;stroke-opacity:0.999911;paint-order:markers fill stroke"
       id="rect6552-5-3"
       width="3.96875"
       height="3.96875"
       x="8.5774698"
       y="47.700687" />
    <rect
       style="opacity:1;fill:none;fill-opacity:1;stroke:#000000;stroke-width:0.750002;stroke-linecap:round;stroke-linejoin:round;stroke-dasharray:none;stroke-opacity:1;paint-order:markers fill stroke"
       id="rect6552"
       width="3.96875"
       height="3.96875"
       x="12.567708"
       y="51.726044" />
  </g>
  <g
     inkscape:label="011"
     inkscape:groupmode="layer"
     id="g68437"
     style="display:none"
     sodipodi:insensitive="true">
    <text
       xml:space="preserve"
       style="font-style:normal;font-variant:normal;font-weight:normal;font-stretch:normal;font-size:5.04019px;line-height:1.25;font-family:Gidole;-inkscape-font-specification:Gidole;letter-spacing:0px;word-spacing:0px;display:inline;fill:#000000;fill-opacity:1;stroke:none;stroke-width:0.264583"
       x="4.3400974"
       y="8.7155991"
       id="text68395"><tspan
         sodipodi:role="line"
         id="tspan68393"
         style="font-style:normal;font-variant:normal;font-weight:normal;font-stretch:normal;font-family:Gidole;-inkscape-font-specification:Gidole;stroke-width:0.264583"
         x="4.3400974"
         y="8.7155991">Ereignis+</tspan></text>
    <text
       xml:space="preserve"
       style="font-style:normal;font-variant:normal;font-weight:normal;font-stretch:normal;font-size:3.52778px;line-height:1.25;font-family:Gidole;-inkscape-font-specification:'Gidole, Normal';font-variant-ligatures:normal;font-variant-caps:normal;font-variant-numeric:normal;font-variant-east-asian:normal;letter-spacing:0px;word-spacing:0px;fill:#000000;fill-opacity:1;stroke:none;stroke-width:0.264583"
       x="4.6383886"
       y="21.302832"
       id="text68399"><tspan
         sodipodi:role="line"
         id="tspan7491"
         x="4.6383886"
         y="21.302832">Förderung aller nachhaltigen</tspan><tspan
         sodipodi:role="line"
         id="tspan7493"
         x="4.6383886"
         y="25.712557">Projekte (Mobilität oder</tspan><tspan
         sodipodi:role="line"
         id="tspan7495"
         x="4.6383886"
         y="30.122282">Vegetation).</tspan></text>
    <text
       xml:space="preserve"
       style="font-style:normal;font-variant:normal;font-weight:normal;font-stretch:normal;font-size:2.82222px;line-height:1.25;font-family:Gidole;-inkscape-font-specification:'Gidole, Normal';font-variant-ligatures:normal;font-variant-caps:normal;font-variant-numeric:normal;font-variant-east-asian:normal;letter-spacing:0px;word-spacing:0px;fill:#000000;fill-opacity:1;stroke:none;stroke-width:0.264583"
       x="4.6383886"
       y="64.189651"
       id="text68403"><tspan
         sodipodi:role="line"
         id="tspan7816"
         x="4.6383886"
         y="64.189651">Gilt nur für eine Runde.</tspan></text>
    <text
       xml:space="preserve"
       style="font-style:normal;font-variant:normal;font-weight:normal;font-stretch:normal;font-size:2.82222px;line-height:1.25;font-family:Gidole;-inkscape-font-specification:'Gidole, Normal';font-variant-ligatures:normal;font-variant-caps:normal;font-variant-numeric:normal;font-variant-east-asian:normal;text-align:end;letter-spacing:0px;word-spacing:0px;text-anchor:end;fill:#808080;fill-opacity:1;stroke:none;stroke-width:0.264583;stroke-opacity:1"
       x="55.151028"
       y="85.025024"
       id="text68407"><tspan
         sodipodi:role="line"
         id="tspan68405"
         x="55.151028"
         y="85.025024">4x 011</tspan></text>
    <text
       xml:space="preserve"
       style="font-style:normal;font-variant:normal;font-weight:normal;font-stretch:normal;font-size:5.04019px;line-height:1;font-family:Gidole;-inkscape-font-specification:Gidole;letter-spacing:0px;word-spacing:0px;fill:#000000;fill-opacity:1;stroke:none;stroke-width:0.264583"
       x="4.5216093"
       y="14.11208"
       id="text68413"><tspan
         sodipodi:role="line"
         style="font-style:normal;font-variant:normal;font-weight:normal;font-stretch:normal;font-family:Gidole;-inkscape-font-specification:Gidole;stroke:#000000;stroke-width:0.264583;stroke-opacity:1"
         x="4.5216093"
         y="14.11208"
         id="tspan68411">Förderung</tspan></text>
    <text
       xml:space="preserve"
       style="font-style:normal;font-variant:normal;font-weight:normal;font-stretch:normal;font-size:5.04019px;line-height:1.25;font-family:Gidole;-inkscape-font-specification:Gidole;text-align:center;letter-spacing:0px;word-spacing:0px;text-anchor:middle;fill:#363fb6;fill-opacity:1;stroke:#363fb6;stroke-width:0.264583;stroke-opacity:1"
       x="29.501043"
       y="42.174984"
       id="text68417"><tspan
         sodipodi:role="line"
         id="tspan68415"
         style="font-style:normal;font-variant:normal;font-weight:normal;font-stretch:normal;font-family:Gidole;-inkscape-font-specification:Gidole;text-align:center;text-anchor:middle;fill:#363fb6;fill-opacity:1;stroke:#363fb6;stroke-width:0.264583;stroke-opacity:1"
         x="29.501043"
         y="42.174984">-1 Planungsauwand</tspan></text>
    <rect
       style="opacity:1;fill:none;stroke:#363fb6;stroke-width:0.750003;stroke-linecap:round;stroke-linejoin:round;stroke-dasharray:none;stroke-opacity:1;paint-order:markers fill stroke"
       id="rect68419"
       width="11.906249"
       height="11.906252"
       x="6.6145835"
       y="43.65625" />
    <rect
       style="display:inline;fill:#363fb6;fill-opacity:1;stroke:#363fb6;stroke-width:0.750001;stroke-linecap:round;stroke-linejoin:round;stroke-dasharray:none;stroke-opacity:1;paint-order:markers fill stroke"
       id="rect68421"
       width="12.192707"
       height="4.2197051"
       x="42.376373"
       y="5.3855491" />
    <path
       style="fill:none;stroke:#000000;stroke-width:0.264583px;stroke-linecap:butt;stroke-linejoin:miter;stroke-opacity:1"
       d="M 0,5.0338976 V 0 h 4.7830829"
       id="path68423" />
    <path
       style="fill:none;stroke:#000000;stroke-width:0.264583px;stroke-linecap:butt;stroke-linejoin:miter;stroke-opacity:1"
       d="m 54.944081,0 h 5.055917 v 5.0105487"
       id="path68425" />
    <path
       style="fill:none;stroke:#000000;stroke-width:0.264583px;stroke-linecap:butt;stroke-linejoin:miter;stroke-opacity:1"
       d="m 59.999998,85.038762 v 4.961237 h -5.050163"
       id="path68427" />
    <path
       style="fill:none;stroke:#000000;stroke-width:0.264583px;stroke-linecap:butt;stroke-linejoin:miter;stroke-opacity:1"
       d="M 4.7706994,89.999999 H 0 v -4.98448"
       id="path68429" />
    <text
       xml:space="preserve"
       style="font-style:normal;font-variant:normal;font-weight:normal;font-stretch:normal;font-size:5.04019px;line-height:1.25;font-family:Gidole;-inkscape-font-specification:Gidole;text-align:center;letter-spacing:0px;word-spacing:0px;text-anchor:middle;display:inline;fill:#ffffff;fill-opacity:1;stroke:#ffffff;stroke-width:0.265;stroke-linecap:round;stroke-linejoin:round;stroke-dasharray:none;stroke-opacity:1"
       x="48.113419"
       y="9.2611914"
       id="text68433"><tspan
         sodipodi:role="line"
         id="tspan68431"
         style="font-style:normal;font-variant:normal;font-weight:normal;font-stretch:normal;font-family:Gidole;-inkscape-font-specification:Gidole;text-align:center;text-anchor:middle;fill:#ffffff;fill-opacity:1;stroke:#ffffff;stroke-width:0.265;stroke-linecap:round;stroke-linejoin:round;stroke-dasharray:none;stroke-opacity:1"
         x="48.113419"
         y="9.2611914">-1</tspan></text>
    <rect
       style="display:inline;fill:none;fill-opacity:1;stroke:#508f27;stroke-width:0.750001;stroke-linecap:round;stroke-linejoin:round;stroke-dasharray:none;stroke-opacity:1;paint-order:markers fill stroke"
       id="rect68435"
       width="3.9687488"
       height="3.9687488"
       x="8.598959"
       y="45.640625" />
    <rect
       style="display:inline;fill:none;fill-opacity:1;stroke:#b331b5;stroke-width:0.750001;stroke-linecap:round;stroke-linejoin:round;stroke-dasharray:none;stroke-opacity:1;paint-order:markers fill stroke"
       id="rect68435-5"
       width="3.9687488"
       height="3.9687488"
       x="12.942709"
       y="49.768997" />
  </g>
  <g
     inkscape:label="014"
     inkscape:groupmode="layer"
     id="g8195"
     style="display:none"
     sodipodi:insensitive="true">
    <text
       xml:space="preserve"
       style="font-style:normal;font-variant:normal;font-weight:normal;font-stretch:normal;font-size:5.04019px;line-height:1.25;font-family:Gidole;-inkscape-font-specification:Gidole;letter-spacing:0px;word-spacing:0px;display:inline;fill:#000000;fill-opacity:1;stroke:none;stroke-width:0.264583"
       x="4.3400974"
       y="8.7155991"
       id="text8149"><tspan
         sodipodi:role="line"
         id="tspan8147"
         style="font-style:normal;font-variant:normal;font-weight:normal;font-stretch:normal;font-family:Gidole;-inkscape-font-specification:Gidole;stroke-width:0.264583"
         x="4.3400974"
         y="8.7155991">Ereignis+</tspan></text>
    <text
       xml:space="preserve"
       style="font-style:normal;font-variant:normal;font-weight:normal;font-stretch:normal;font-size:3.52778px;line-height:1.25;font-family:Gidole;-inkscape-font-specification:'Gidole, Normal';font-variant-ligatures:normal;font-variant-caps:normal;font-variant-numeric:normal;font-variant-east-asian:normal;letter-spacing:0px;word-spacing:0px;fill:#000000;fill-opacity:1;stroke:none;stroke-width:0.264583"
       x="4.6383886"
       y="21.302832"
       id="text8157"><tspan
         sodipodi:role="line"
         id="tspan8574"
         x="4.6383886"
         y="21.302832">Alle Spieler:innen erhalten für ein</tspan><tspan
         sodipodi:role="line"
         id="tspan8576"
         x="4.6383886"
         y="25.712557">einziges beliebiges Projekt eine</tspan><tspan
         sodipodi:role="line"
         id="tspan8578"
         x="4.6383886"
         y="30.122282">zusätzliche Planungsressource.</tspan></text>
    <text
       xml:space="preserve"
       style="font-style:normal;font-variant:normal;font-weight:normal;font-stretch:normal;font-size:2.82222px;line-height:1.25;font-family:Gidole;-inkscape-font-specification:'Gidole, Normal';font-variant-ligatures:normal;font-variant-caps:normal;font-variant-numeric:normal;font-variant-east-asian:normal;letter-spacing:0px;word-spacing:0px;fill:#000000;fill-opacity:1;stroke:none;stroke-width:0.264583"
       x="4.6383886"
       y="64.189651"
       id="text8161"><tspan
         sodipodi:role="line"
         id="tspan14191"
         x="4.6383886"
         y="64.189651">Es müssen nach der Umsetzung des</tspan><tspan
         sodipodi:role="line"
         id="tspan14193"
         x="4.6383886"
         y="67.71743">Projekts alle Planungsressourcen der</tspan><tspan
         sodipodi:role="line"
         id="tspan14195"
         x="4.6383886"
         y="71.245201">Spieler:in aufgebraucht sein. Wer noch</tspan><tspan
         sodipodi:role="line"
         id="tspan14197"
         x="4.6383886"
         y="74.77298">genug hat, bekommt keine Spende.</tspan><tspan
         sodipodi:role="line"
         id="tspan14199"
         x="4.6383886"
         y="78.300751">Gilt nur für eine Runde.</tspan></text>
    <text
       xml:space="preserve"
       style="font-style:normal;font-variant:normal;font-weight:normal;font-stretch:normal;font-size:2.82222px;line-height:1.25;font-family:Gidole;-inkscape-font-specification:'Gidole, Normal';font-variant-ligatures:normal;font-variant-caps:normal;font-variant-numeric:normal;font-variant-east-asian:normal;text-align:end;letter-spacing:0px;word-spacing:0px;text-anchor:end;fill:#808080;fill-opacity:1;stroke:none;stroke-width:0.264583;stroke-opacity:1"
       x="55.151028"
       y="85.025024"
       id="text8165"><tspan
         sodipodi:role="line"
         id="tspan8163"
         x="55.151028"
         y="85.025024">2x 014</tspan></text>
    <text
       xml:space="preserve"
       style="font-style:normal;font-variant:normal;font-weight:normal;font-stretch:normal;font-size:5.04019px;line-height:1;font-family:Gidole;-inkscape-font-specification:Gidole;letter-spacing:0px;word-spacing:0px;fill:#000000;fill-opacity:1;stroke:none;stroke-width:0.264583"
       x="4.5216093"
       y="14.11208"
       id="text8169"><tspan
         sodipodi:role="line"
         style="font-style:normal;font-variant:normal;font-weight:normal;font-stretch:normal;font-family:Gidole;-inkscape-font-specification:Gidole;stroke:#000000;stroke-width:0.264583;stroke-opacity:1"
         x="4.5216093"
         y="14.11208"
         id="tspan8167">Spenden</tspan></text>
    <text
       xml:space="preserve"
       style="font-style:normal;font-variant:normal;font-weight:normal;font-stretch:normal;font-size:5.04019px;line-height:1.25;font-family:Gidole;-inkscape-font-specification:Gidole;text-align:center;letter-spacing:0px;word-spacing:0px;text-anchor:middle;fill:#363fb6;fill-opacity:1;stroke:#363fb6;stroke-width:0.264583;stroke-opacity:1"
       x="29.501043"
       y="42.174984"
       id="text8173"><tspan
         sodipodi:role="line"
         id="tspan8171"
         style="font-style:normal;font-variant:normal;font-weight:normal;font-stretch:normal;font-family:Gidole;-inkscape-font-specification:Gidole;text-align:center;text-anchor:middle;fill:#363fb6;fill-opacity:1;stroke:#363fb6;stroke-width:0.264583;stroke-opacity:1"
         x="29.501043"
         y="42.174984">+1 Planungsressource</tspan></text>
    <rect
       style="opacity:1;fill:none;stroke:#363fb6;stroke-width:0.750003;stroke-linecap:round;stroke-linejoin:round;stroke-dasharray:none;stroke-opacity:1;paint-order:markers fill stroke"
       id="rect8175"
       width="11.906249"
       height="11.906252"
       x="6.6145835"
       y="43.65625" />
    <rect
       style="display:inline;fill:#363fb6;fill-opacity:1;stroke:#363fb6;stroke-width:0.750001;stroke-linecap:round;stroke-linejoin:round;stroke-dasharray:none;stroke-opacity:1;paint-order:markers fill stroke"
       id="rect8177"
       width="12.192707"
       height="4.2197051"
       x="42.376373"
       y="5.3855491" />
    <path
       style="fill:none;stroke:#000000;stroke-width:0.264583px;stroke-linecap:butt;stroke-linejoin:miter;stroke-opacity:1"
       d="M 0,5.0338976 V 0 h 4.7830829"
       id="path8179" />
    <path
       style="fill:none;stroke:#000000;stroke-width:0.264583px;stroke-linecap:butt;stroke-linejoin:miter;stroke-opacity:1"
       d="m 54.944081,0 h 5.055917 v 5.0105487"
       id="path8181" />
    <path
       style="fill:none;stroke:#000000;stroke-width:0.264583px;stroke-linecap:butt;stroke-linejoin:miter;stroke-opacity:1"
       d="m 59.999998,85.038762 v 4.961237 h -5.050163"
       id="path8183" />
    <path
       style="fill:none;stroke:#000000;stroke-width:0.264583px;stroke-linecap:butt;stroke-linejoin:miter;stroke-opacity:1"
       d="M 4.7706994,89.999999 H 0 v -4.98448"
       id="path8185" />
    <text
       xml:space="preserve"
       style="font-style:normal;font-variant:normal;font-weight:normal;font-stretch:normal;font-size:5.04019px;line-height:1.25;font-family:Gidole;-inkscape-font-specification:Gidole;text-align:center;letter-spacing:0px;word-spacing:0px;text-anchor:middle;display:inline;fill:#ffffff;fill-opacity:1;stroke:#ffffff;stroke-width:0.265;stroke-linecap:round;stroke-linejoin:round;stroke-dasharray:none;stroke-opacity:1"
       x="48.113419"
       y="9.2611914"
       id="text8189"><tspan
         sodipodi:role="line"
         id="tspan8187"
         style="font-style:normal;font-variant:normal;font-weight:normal;font-stretch:normal;font-family:Gidole;-inkscape-font-specification:Gidole;text-align:center;text-anchor:middle;fill:#ffffff;fill-opacity:1;stroke:#ffffff;stroke-width:0.265;stroke-linecap:round;stroke-linejoin:round;stroke-dasharray:none;stroke-opacity:1"
         x="48.113419"
         y="9.2611914">+1</tspan></text>
  </g>
  <g
     inkscape:label="021"
     inkscape:groupmode="layer"
     id="g143413"
     style="display:none"
     sodipodi:insensitive="true">
    <text
       xml:space="preserve"
       style="font-style:normal;font-variant:normal;font-weight:normal;font-stretch:normal;font-size:5.04019px;line-height:1.25;font-family:Gidole;-inkscape-font-specification:Gidole;letter-spacing:0px;word-spacing:0px;display:inline;fill:#000000;fill-opacity:1;stroke:none;stroke-width:0.264583"
       x="4.3400974"
       y="8.7155991"
       id="text143365"><tspan
         sodipodi:role="line"
         id="tspan143363"
         style="font-style:normal;font-variant:normal;font-weight:normal;font-stretch:normal;font-family:Gidole;-inkscape-font-specification:Gidole;stroke-width:0.264583"
         x="4.3400974"
         y="8.7155991">Ereignis+</tspan></text>
    <text
       xml:space="preserve"
       style="font-style:normal;font-variant:normal;font-weight:normal;font-stretch:normal;font-size:3.52778px;line-height:1.25;font-family:Gidole;-inkscape-font-specification:'Gidole, Normal';font-variant-ligatures:normal;font-variant-caps:normal;font-variant-numeric:normal;font-variant-east-asian:normal;letter-spacing:0px;word-spacing:0px;fill:#000000;fill-opacity:1;stroke:none;stroke-width:0.264583"
       x="4.6383886"
       y="21.302832"
       id="text143373"><tspan
         sodipodi:role="line"
         id="tspan7983"
         x="4.6383886"
         y="21.302832" /><tspan
         sodipodi:role="line"
         id="tspan7985"
         x="4.6383886"
         y="25.712557">In dieser Runde darf nichts</tspan><tspan
         sodipodi:role="line"
         id="tspan7987"
         x="4.6383886"
         y="30.122282">abgerissen werden.</tspan></text>
    <text
       xml:space="preserve"
       style="font-style:normal;font-variant:normal;font-weight:normal;font-stretch:normal;font-size:2.82222px;line-height:1.25;font-family:Gidole;-inkscape-font-specification:'Gidole, Normal';font-variant-ligatures:normal;font-variant-caps:normal;font-variant-numeric:normal;font-variant-east-asian:normal;letter-spacing:0px;word-spacing:0px;fill:#000000;fill-opacity:1;stroke:none;stroke-width:0.264583"
       x="4.6383886"
       y="64.189651"
       id="text143379"><tspan
         sodipodi:role="line"
         id="tspan7993"
         x="4.6383886"
         y="64.189651">Es gibt keine Ausgleichsmöglichkeiten</tspan><tspan
         sodipodi:role="line"
         id="tspan7995"
         x="4.6383886"
         y="67.71743">oder rechtliche Schlupflöcher.</tspan></text>
    <text
       xml:space="preserve"
       style="font-style:normal;font-variant:normal;font-weight:normal;font-stretch:normal;font-size:2.82222px;line-height:1.25;font-family:Gidole;-inkscape-font-specification:'Gidole, Normal';font-variant-ligatures:normal;font-variant-caps:normal;font-variant-numeric:normal;font-variant-east-asian:normal;text-align:end;letter-spacing:0px;word-spacing:0px;text-anchor:end;fill:#808080;fill-opacity:1;stroke:none;stroke-width:0.264583;stroke-opacity:1"
       x="55.151028"
       y="85.025024"
       id="text143383"><tspan
         sodipodi:role="line"
         id="tspan143381"
         x="55.151028"
         y="85.025024">2x 021</tspan></text>
    <text
       xml:space="preserve"
       style="font-style:normal;font-variant:normal;font-weight:normal;font-stretch:normal;font-size:5.04019px;line-height:1;font-family:Gidole;-inkscape-font-specification:'Gidole, Normal';font-variant-ligatures:normal;font-variant-caps:normal;font-variant-numeric:normal;font-variant-east-asian:normal;letter-spacing:0px;word-spacing:0px;fill:#000000;fill-opacity:1;stroke:#000000;stroke-width:0.264583;stroke-opacity:1"
       x="4.5216093"
       y="14.11208"
       id="text143389"><tspan
         sodipodi:role="line"
         id="tspan143387"
         x="4.5216093"
         y="14.11208">Widerstand gegen</tspan><tspan
         sodipodi:role="line"
         x="4.5216093"
         y="19.152269"
         id="tspan7973">Abriss</tspan></text>
    <path
       style="fill:none;stroke:#000000;stroke-width:0.264583px;stroke-linecap:butt;stroke-linejoin:miter;stroke-opacity:1"
       d="M 0,5.0338976 V 0 h 4.7830829"
       id="path143399" />
    <path
       style="fill:none;stroke:#000000;stroke-width:0.264583px;stroke-linecap:butt;stroke-linejoin:miter;stroke-opacity:1"
       d="m 54.944081,0 h 5.055917 v 5.0105487"
       id="path143401" />
    <path
       style="fill:none;stroke:#000000;stroke-width:0.264583px;stroke-linecap:butt;stroke-linejoin:miter;stroke-opacity:1"
       d="m 59.999998,85.038762 v 4.961237 h -5.050163"
       id="path143403" />
    <path
       style="fill:none;stroke:#000000;stroke-width:0.264583px;stroke-linecap:butt;stroke-linejoin:miter;stroke-opacity:1"
       d="M 4.7706994,89.999999 H 0 v -4.98448"
       id="path143405" />
  </g>
</svg>
